pages
- security_captcha|page
    id: security_captcha
    title: Security
    url: %^(?<base>/manage/security)/
>>>>>>>>>>>(?<type>settings_captcha)$%
    is_https: true
    access
      roles
      - =: admins
      permissions
      - =: manage__security
    blocks
    - system
      - block__tree_sql__user_registered|block_preset_link
          id: block__tree_sql__user_registered
          title: Registered user's menu
          attributes
          - data-block: true
          - data-id: block__tree_sql__user_registered
          - data-style: at-right
      - block__tree__system|block_preset_link
          id: block__tree__system
    - breadcrumbs
      - block__breadcrumbs__system|block_preset_link
          id: block__breadcrumbs__system
    - messages
      - block__messages|block_preset_link
          id: block__messages
    - title
      - block__title|block_preset_link
          id: block__title
    - tabs
      - block__tabs|block
          title: Tabs
          title_is_visible: false
          attributes
          - data-id: block__tabs
          type: link
          source: tabs/user/security
    # ◦◦◦◦◦◦◦◦◦◦◦◦◦◦◦◦◦◦◦◦◦◦◦◦◦◦◦◦◦◦◦◦◦◦◦◦◦◦◦◦◦◦◦◦◦◦◦◦◦◦◦◦◦◦◦◦◦◦◦◦◦◦◦◦◦◦◦◦◦
    - content
      - block__form__security_settings_captcha|block
          title: Security settings CAPTCHA form
          title_is_visible: false
          attributes
          - data-id: block__form__security_settings_captcha
          display
            check: page_args
            where: type
            match: %^settings_captcha$%
          type: link
          source: forms/captcha/security_settings_captcha