module|module_embedded
  id: user
  id_bundle: system
  title: User
  description: Module for working with user accounts and permissions.
  copyright: Copyright © 2017—2022 Maxim Rysevets. All rights reserved.
  version: 0.900