module|module
  id: captcha
  id_bundle: system
  title: CAPTCHA
  group: Security
  description: Module for working with CAPTCHA in forms.
  copyright: Copyright © 2017—2022 Maxim Rysevets. All rights reserved.
  urls
  - settings page: /manage/security/settings_captcha
  enabled: yes
  version: 0.900