module|module_embedded
  id: menu
  id_bundle: system
  title: Menu
  description: Module for working with navigation elements.
  copyright: Copyright © 2017—2022 Maxim Rysevets. All rights reserved.
  deploy_weight: +500
  version: 0.900